{
  "type": "FeatureCollection",
  "features": [
    {
      "type": "Feature",
      "properties": {
        "marker-color": "#ff0000",
        "marker-size": "medium",
        "marker-symbol": ""
      },
      "geometry": {
        "type": "Point",
        "coordinates": [
          -93.955078125,
          34.52466147177172
        ]
      }
    }
  ]
}